[
  "/partageon-back/backend/user/getAvatar?img=av1.png",
  "/partageon-back/backend/user/getAvatar?img=av10.png",
  "/partageon-back/backend/user/getAvatar?img=av11.png",
  "/partageon-back/backend/user/getAvatar?img=av12.png",
  "/partageon-back/backend/user/getAvatar?img=av13.png",
  "/partageon-back/backend/user/getAvatar?img=av14.png",
  "/partageon-back/backend/user/getAvatar?img=av15.png",
  "/partageon-back/backend/user/getAvatar?img=av2.png",
  "/partageon-back/backend/user/getAvatar?img=av3.png",
  "/partageon-back/backend/user/getAvatar?img=av4.png",
  "/partageon-back/backend/user/getAvatar?img=av5.png",
  "/partageon-back/backend/user/getAvatar?img=av6.png",
  "/partageon-back/backend/user/getAvatar?img=av7.png",
  "/partageon-back/backend/user/getAvatar?img=av8.png",
  "/partageon-back/backend/user/getAvatar?img=av9.png",
  "/partageon-back/backend/user/getAvatar?img=test"
]
